{
  "development": {
    "dialect": "sqlite",
    "storage": "./db.development.sqlite",
    "logging": false
  },
  "test": {
    "username": "root",
    "password": null,
    "database": "database_test",
    "host": "127.0.0.1",
    "dialect": "mysql"
  },
  "production": {
    "username": "DB_USER",
    "password": "DB_PASSWORD",
    "database": "DB_NAME",
    "host": "127.0.0.1",
    "dialect": "mysql"
  }
}
